{
   "972793" : {
      "exit_code" : null,
      "name" : null,
      "array_index" : 1,
      "message" : "FIFO scheduling OK",
      "assigned_network_address" : [
         "uvb-41.sophia.grid5000.fr",
         "uvb-42.sophia.grid5000.fr"
      ],
      "stop_time" : 0,
      "command" : "",
      "initial_request" : "oarsub -I -l /nodes=2",
      "walltime" : 3600,
      "scheduled_start" : 1684570970,
      "submission_time" : 1684570968,
      "resubmit_job_id" : 0,
      "queue" : "default",
      "owner" : "nniclausse",
      "dependencies" : [],
      "types" : [
         "monitor=prom_.*default_metrics"
      ],
      "stderr_file" : "<interactive shell>",
      "state" : "Running",
      "type" : "INTERACTIVE",
      "project" : "inria-sam",
      "id" : 972793,
      "cpuset_name" : "nniclausse_972793",
      "events" : [
         {
            "to_check" : "NO",
            "date" : 1684570968,
            "job_id" : 972793,
            "type" : "ADM_RULES_MSG_OUT",
            "event_id" : 3361027,
            "description" : "# Set walltime to default (3600 s)."
         }
      ],
      "properties" : "maintenance = 'NO'",
      "array_id" : 972793,
      "start_time" : 1684570970,
      "stdout_file" : "<interactive shell>",
      "wanted_resources" : "-l \"{type = 'default'}/host=2,walltime=1:0:0\" ",
      "launching_directory" : "/home/nniclausse",
      "reservation" : "None",
      "assigned_resources" : [
         3469,
         3470,
         3471,
         3472,
         3473,
         3474,
         3475,
         3476,
         3477,
         3478,
         3479,
         3480,
         3481,
         3482,
         3483,
         3484,
         3485,
         3486,
         3487,
         3488,
         3489,
         3490,
         3491,
         3492
      ]
   }
}
